<svg width="120" height="120" viewBox="0 0 120 120" fill="none" xmlns="http://www.w3.org/2000/svg">
<g clip-path="url(#clip0_4652_13010)">
<path fill-rule="evenodd" clip-rule="evenodd" d="M106.12 31.16L111.115 36.155C112.016 37.0571 112.016 38.5283 111.115 39.4304L106.611 43.9341C105.709 44.836 104.238 44.836 103.335 43.9341L98.3405 38.9391C97.4386 38.037 97.4386 36.5658 98.3405 35.6637L102.844 31.16C103.746 30.2579 105.218 30.2579 106.12 31.16Z" fill="#A9B0BB"/>
<path fill-rule="evenodd" clip-rule="evenodd" d="M39.817 36.1548L44.812 31.1598C45.7141 30.2579 47.1853 30.2579 48.0874 31.1598L52.5912 35.6636C53.493 36.5657 53.493 38.0368 52.5912 38.9389L47.5962 43.9339C46.6941 44.8358 45.2229 44.8358 44.3208 43.9339L39.817 39.4302C38.9152 38.5281 38.9152 37.0567 39.817 36.1548Z" fill="#A9B0BB"/>
<path fill-rule="evenodd" clip-rule="evenodd" d="M69.6172 15.1201H81.3132V30.9271H69.6172V15.1201Z" fill="#CAD0D7"/>
<path fill-rule="evenodd" clip-rule="evenodd" d="M64.0817 11.5879H86.8426C88.1183 11.5879 89.1587 12.6283 89.1587 13.904V16.3359C89.1587 17.6113 88.1183 18.652 86.8426 18.652H64.0817C62.806 18.652 61.7656 17.6116 61.7656 16.3359V13.904C61.7656 12.6283 62.806 11.5879 64.0817 11.5879Z" fill="#A9B0BB"/>
<path d="M104.862 96.2224C121.107 79.9771 121.107 53.6382 104.862 37.3928C88.6162 21.1475 62.2773 21.1475 46.032 37.3928C29.7866 53.6382 29.7866 79.9771 46.032 96.2224C62.2773 112.468 88.6162 112.468 104.862 96.2224Z" fill="#FDCD56"/>
<path d="M75.4641 99.232C93.372 99.232 107.889 84.7148 107.889 66.8069C107.889 48.899 93.372 34.3818 75.4641 34.3818C57.5563 34.3818 43.0391 48.899 43.0391 66.8069C43.0391 84.7148 57.5563 99.232 75.4641 99.232Z" fill="#F4F6F8"/>
<path fill-rule="evenodd" clip-rule="evenodd" d="M87.8997 41.9933C88.3527 41.2112 89.3542 40.9442 90.1363 41.3973C90.9184 41.8503 91.1854 42.8518 90.7323 43.6339L88.4081 47.6595C87.955 48.4416 86.9535 48.7086 86.1714 48.2555C85.3893 47.8025 85.1223 46.801 85.5754 46.0189L87.8997 41.9933ZM77.1039 43.7502C77.1039 44.6562 76.3694 45.3908 75.4633 45.3908C74.5572 45.3908 73.8227 44.6562 73.8227 43.7502V39.1016C73.8227 38.1955 74.5572 37.4609 75.4633 37.4609C76.3694 37.4609 77.1039 38.1955 77.1039 39.1016V43.7502ZM60.1942 43.6339C59.7412 42.8518 60.0081 41.8503 60.7902 41.3973C61.5723 40.9442 62.5738 41.2112 63.0269 41.9933L65.3512 46.0189C65.8042 46.801 65.5373 47.8025 64.7552 48.2555C63.973 48.7086 62.9716 48.4416 62.5185 47.6595L60.1942 43.6339ZM50.6495 54.3706C49.8674 53.9176 49.6005 52.9161 50.0535 52.134C50.5066 51.3519 51.5081 51.0849 52.2902 51.538L56.3158 53.8623C57.0979 54.3153 57.3648 55.3168 56.9118 56.0989C56.4588 56.881 55.4573 57.148 54.6752 56.6949L50.6495 54.3706ZM47.7578 68.4477C46.8517 68.4477 46.1172 67.7131 46.1172 66.807C46.1172 65.9009 46.8517 65.1664 47.7578 65.1664H52.4064C53.3125 65.1664 54.047 65.9009 54.047 66.807C54.047 67.7131 53.3125 68.4477 52.4064 68.4477H47.7578ZM52.2899 82.0761C51.5078 82.5291 50.5063 82.2622 50.0533 81.4801C49.6002 80.698 49.8672 79.6965 50.6493 79.2434L54.6749 76.9191C55.457 76.4661 56.4585 76.733 56.9116 77.5152C57.3646 78.2973 57.0977 79.2987 56.3155 79.7518L52.2899 82.0761ZM63.0269 91.621C62.5738 92.4031 61.5723 92.6701 60.7902 92.217C60.0081 91.764 59.7412 90.7625 60.1942 89.9804L62.5185 85.9548C62.9716 85.1727 63.973 84.9057 64.7552 85.3587C65.5373 85.8118 65.8042 86.8133 65.3512 87.5954L63.0269 91.621ZM77.1039 94.5125C77.1039 95.4186 76.3694 96.1531 75.4633 96.1531C74.5572 96.1531 73.8227 95.4186 73.8227 94.5125V89.8639C73.8227 88.9578 74.5572 88.2233 75.4633 88.2233C76.3694 88.2233 77.1039 88.9578 77.1039 89.8639V94.5125ZM90.7323 89.9804C91.1854 90.7625 90.9184 91.764 90.1363 92.217C89.3542 92.6701 88.3527 92.4031 87.8997 91.621L85.5754 87.5954C85.1223 86.8133 85.3893 85.8118 86.1714 85.3587C86.9535 84.9057 87.955 85.1727 88.4081 85.9548L90.7323 89.9804ZM100.277 79.2434C101.059 79.6965 101.326 80.698 100.873 81.4801C100.42 82.2622 99.4185 82.5291 98.6364 82.0761L94.6108 79.7518C93.8287 79.2987 93.5617 78.2973 94.0148 77.5152C94.4678 76.733 95.4693 76.4661 96.2514 76.9191L100.277 79.2434ZM103.169 65.1664C104.075 65.1664 104.809 65.9009 104.809 66.807C104.809 67.7131 104.075 68.4477 103.169 68.4477H98.5202C97.6141 68.4477 96.8795 67.7131 96.8795 66.807C96.8795 65.9009 97.6141 65.1664 98.5202 65.1664H103.169ZM98.6366 51.5382C99.4188 51.0852 100.42 51.3521 100.873 52.1342C101.326 52.9163 101.059 53.9178 100.277 54.3709L96.2516 56.6952C95.4695 57.1482 94.4681 56.8812 94.015 56.0991C93.562 55.317 93.8289 54.3155 94.611 53.8625L98.6366 51.5382Z" fill="#A9B0BB"/>
<path fill-rule="evenodd" clip-rule="evenodd" d="M73.8281 50.0928C73.8281 49.1867 74.5627 48.4521 75.4688 48.4521C76.3748 48.4521 77.1094 49.1867 77.1094 50.0928V66.8075C77.1094 67.7136 76.3748 68.4481 75.4688 68.4481C74.5627 68.4481 73.8281 67.7136 73.8281 66.8075V50.0928Z" fill="#A9B0BB"/>
<path fill-rule="evenodd" clip-rule="evenodd" d="M75.4609 70.3232C77.3973 70.3232 78.9766 68.744 78.9766 66.8076C78.9766 64.8712 77.3973 63.292 75.4609 63.292C73.5248 63.292 71.9453 64.8712 71.9453 66.8076C71.9453 68.744 73.5248 70.3232 75.4609 70.3232Z" fill="#FDCD56"/>
<path fill-rule="evenodd" clip-rule="evenodd" d="M15.0848 52.5625C14.1788 52.5625 13.4442 51.828 13.4442 50.9219C13.4442 50.0158 14.1788 49.2812 15.0848 49.2812H28.5565C29.4626 49.2812 30.1971 50.0158 30.1971 50.9219C30.1971 51.828 29.4626 52.5625 28.5565 52.5625H15.0848ZM14.1855 84.3332C13.2795 84.3332 12.5449 83.5987 12.5449 82.6926C12.5449 81.7865 13.2795 81.052 14.1855 81.052H28.5567C29.4628 81.052 30.1973 81.7865 30.1973 82.6926C30.1973 83.5987 29.4628 84.3332 28.5567 84.3332H14.1855ZM4.57031 73.743C3.66422 73.743 2.92969 73.0084 2.92969 72.1023C2.92969 71.1962 3.66422 70.4617 4.57031 70.4617H26.2355C27.1416 70.4617 27.8761 71.1962 27.8761 72.1023C27.8761 73.0084 27.1416 73.743 26.2355 73.743H4.57031ZM10.6976 63.1527C9.79149 63.1527 9.05695 62.4182 9.05695 61.5121C9.05695 60.606 9.79149 59.8715 10.6976 59.8715H26.1434C27.0495 59.8715 27.784 60.606 27.784 61.5121C27.784 62.4182 27.0495 63.1527 26.1434 63.1527H10.6976Z" fill="#FDCD56"/>
</g>
<defs>
<clipPath id="clip0_4652_13010">
<rect width="120" height="120" fill="white"/>
</clipPath>
</defs>
</svg>
