<svg width="120" height="120" viewBox="0 0 120 120" fill="none" xmlns="http://www.w3.org/2000/svg">
<g clip-path="url(#clip0_4652_13438)">
<path d="M60.0044 120C70.7807 120 79.5166 115.633 79.5166 110.244C79.5166 104.856 70.7807 100.488 60.0044 100.488C49.2281 100.488 40.4922 104.856 40.4922 110.244C40.4922 115.633 49.2281 120 60.0044 120Z" fill="#A2E62E"/>
<path d="M60.0031 0C84.7885 0 104.881 20.0925 104.881 44.8781C104.881 73.7909 72.9739 100.419 62.9675 108.059C61.2163 109.396 58.79 109.396 57.0388 108.059C47.0323 100.419 15.125 73.7909 15.125 44.8781C15.125 20.0925 35.2177 0 60.0031 0V0Z" fill="#FD8087"/>
<path d="M60.0026 0C56.4947 0 53.081 0.403125 49.8047 1.16437C69.6769 5.78203 84.4847 23.6004 84.4847 44.8779C84.4847 68.5779 63.0466 90.7416 49.8047 102.172C52.7191 104.687 55.2368 106.683 57.0413 108.061C58.7918 109.398 61.2166 109.395 62.9672 108.059C72.9738 100.419 104.881 73.7906 104.881 44.8781C104.881 20.0925 84.788 0 60.0026 0V0Z" fill="#FE646F"/>
<path d="M60.007 75.8537C77.1144 75.8537 90.9827 61.9855 90.9827 44.878C90.9827 27.7706 77.1144 13.9023 60.007 13.9023C42.8995 13.9023 29.0312 27.7706 29.0312 44.878C29.0312 61.9855 42.8995 75.8537 60.007 75.8537Z" fill="#DFF6FD"/>
<path d="M75.8263 59.2403H44.1719V30.2238C44.1719 30.0619 44.3031 29.9307 44.465 29.9307H75.5332C75.6951 29.9307 75.8263 30.0619 75.8263 30.2238V59.2403Z" fill="#FFD782"/>
<path d="M75.8263 53.9658H44.1719V58.6553H75.8263V53.9658Z" fill="#FFAF5F"/>
<path d="M75.8267 40.4325C75.7066 40.4623 75.583 40.4829 75.4536 40.4829C74.6001 40.4829 73.9082 39.791 73.9082 38.9375C73.9082 39.7909 73.2163 40.4829 72.3628 40.4829C71.5093 40.4829 70.8173 39.791 70.8173 38.9375C70.8173 39.7909 70.1255 40.4829 69.2719 40.4829C68.4184 40.4829 67.7265 39.791 67.7265 38.9375C67.7265 39.7909 67.0345 40.4829 66.181 40.4829C65.3275 40.4829 64.6356 39.791 64.6356 38.9375C64.6356 39.7909 63.9436 40.4829 63.0901 40.4829C62.2367 40.4829 61.5447 39.791 61.5447 38.9375C61.5447 39.7909 60.8528 40.4829 59.9993 40.4829C59.1457 40.4829 58.4538 39.791 58.4538 38.9375C58.4538 39.7909 57.7619 40.4829 56.9084 40.4829C56.0549 40.4829 55.363 39.791 55.363 38.9375C55.363 39.7909 54.6711 40.4829 53.8175 40.4829C52.964 40.4829 52.2721 39.791 52.2721 38.9375C52.2721 39.7909 51.5802 40.4829 50.7267 40.4829C49.8732 40.4829 49.1812 39.791 49.1812 38.9375C49.1812 39.7909 48.4893 40.4829 47.6358 40.4829C46.7823 40.4829 46.0904 39.791 46.0904 38.9375C46.0904 39.7909 45.3985 40.4829 44.5449 40.4829C44.4156 40.4829 44.292 40.4623 44.1719 40.4325V41.6177C44.295 41.6347 44.4172 41.6554 44.5449 41.6554C45.1186 41.6554 45.6513 41.4767 46.0904 41.1721C46.5296 41.4767 47.0622 41.6553 47.6359 41.6553C48.2096 41.6553 48.7423 41.4767 49.1814 41.1721C49.6204 41.4767 50.1531 41.6553 50.7268 41.6553C51.3005 41.6553 51.8332 41.4767 52.2722 41.1721C52.7113 41.4767 53.244 41.6553 53.8177 41.6553C54.3913 41.6553 54.924 41.4767 55.3631 41.1721C55.8022 41.4767 56.3349 41.6553 56.9085 41.6553C57.4822 41.6553 58.0149 41.4767 58.454 41.1721C58.893 41.4767 59.4257 41.6553 59.9993 41.6553C60.573 41.6553 61.1057 41.4767 61.5448 41.1721C61.9838 41.4767 62.5165 41.6553 63.0902 41.6553C63.6639 41.6553 64.1966 41.4767 64.6356 41.1721C65.0747 41.4767 65.6074 41.6553 66.1811 41.6553C66.7548 41.6553 67.2875 41.4767 67.7265 41.1721C68.1656 41.4767 68.6983 41.6553 69.272 41.6553C69.8456 41.6553 70.3783 41.4767 70.8174 41.1721C71.2565 41.4767 71.7892 41.6553 72.3628 41.6553C72.9366 41.6553 73.4692 41.4767 73.9083 41.1721C74.3473 41.4767 74.88 41.6553 75.4537 41.6553C75.5814 41.6553 75.7036 41.6347 75.8268 41.6176V40.4325H75.8267Z" fill="#FFAF5F"/>
<path d="M63.5226 43.999H47.1094V55.7228H63.5226V43.999Z" fill="#B4E1FA"/>
<path d="M72.9014 43.999H65.8672V55.7228H72.9014V43.999Z" fill="#B4E1FA"/>
<path d="M72.8936 44H65.8594V45.7586H72.8936V44Z" fill="#A0D2F0"/>
<path d="M72.8929 49.4711L68.7896 44H67.6172L72.8929 51.0343V49.4711Z" fill="#DAF0FD"/>
<path d="M66.4455 44H65.8594V46.3447L72.8937 55.7238V52.5974L66.4455 44Z" fill="#A0D2F0"/>
<path d="M70.1085 45.7585L68.7896 44H67.6172L68.9361 45.7585H70.1085Z" fill="#B4E1FA"/>
<path d="M61.7543 55.7238H60.582L51.7891 44H52.9614L61.7543 55.7238Z" fill="#DAF0FD"/>
<path d="M59.4189 55.7228H57.0741L48.2812 43.999H50.6261L59.4189 55.7228Z" fill="#A0D2F0"/>
<path d="M63.5226 43.999H47.1094V45.7576H63.5226V43.999Z" fill="#A0D2F0"/>
<path d="M54.2804 45.7585L52.9614 44H51.7891L53.108 45.7585H54.2804Z" fill="#B4E1FA"/>
<path d="M56.9048 40.4817C56.0513 40.4817 55.3594 39.7898 55.3594 38.9363V37.5508H58.4502V38.9363C58.4502 39.7898 57.7583 40.4817 56.9048 40.4817Z" fill="#D2555A"/>
<path d="M63.0923 40.4817C62.2388 40.4817 61.5469 39.7898 61.5469 38.9363V37.5508H64.6377V38.9363C64.6377 39.7898 63.9458 40.4817 63.0923 40.4817Z" fill="#D2555A"/>
<path d="M50.7251 40.4817C49.8716 40.4817 49.1797 39.7898 49.1797 38.9363V37.5508H52.2706V38.9363C52.2705 39.7898 51.5786 40.4817 50.7251 40.4817Z" fill="#D2555A"/>
<path d="M44.5454 40.4817C43.6919 40.4817 43 39.7898 43 38.9363V37.5508H46.0909V38.9363C46.0909 39.7898 45.3989 40.4817 44.5454 40.4817Z" fill="#D2555A"/>
<path d="M69.272 40.4817C68.4185 40.4817 67.7266 39.7898 67.7266 38.9363V37.5508H70.8174V38.9363C70.8174 39.7898 70.1256 40.4817 69.272 40.4817Z" fill="#D2555A"/>
<path d="M53.8189 40.4817C52.9654 40.4817 52.2734 39.7898 52.2734 38.9363V37.5508H55.3643V38.9363C55.3643 39.7898 54.6724 40.4817 53.8189 40.4817Z" fill="#C7CFE2"/>
<path d="M66.1782 40.4817C65.3247 40.4817 64.6328 39.7898 64.6328 38.9363V37.5508H67.7237V38.9363C67.7237 39.7898 67.0317 40.4817 66.1782 40.4817Z" fill="#C7CFE2"/>
<path d="M75.4517 40.4827C74.5982 40.4827 73.9062 39.7908 73.9062 38.9373V37.5518H76.9971V38.9373C76.9971 39.7908 76.3052 40.4827 75.4517 40.4827Z" fill="#D2555A"/>
<path d="M72.3579 40.4817C71.5044 40.4817 70.8125 39.7898 70.8125 38.9363V37.5508H73.9034V38.9363C73.9033 39.7898 73.2114 40.4817 72.3579 40.4817Z" fill="#C7CFE2"/>
<path d="M47.6314 40.4817C46.7779 40.4817 46.0859 39.7898 46.0859 38.9363V37.5508H49.1768V38.9363C49.1768 39.7898 48.4849 40.4817 47.6314 40.4817Z" fill="#C7CFE2"/>
<path d="M59.9907 40.4817C59.1372 40.4817 58.4453 39.7898 58.4453 38.9363V37.5508H61.5362V38.9363C61.5362 39.7898 60.8442 40.4817 59.9907 40.4817Z" fill="#C7CFE2"/>
<path d="M58.4502 37.5509H55.3594L55.6791 32.8613H58.5568L58.4502 37.5509Z" fill="#FF6464"/>
<path d="M64.6349 37.5509H61.5441L61.4375 32.8613H64.3152L64.6349 37.5509Z" fill="#FF6464"/>
<path d="M52.2705 37.5509H49.1797L49.9257 32.8613H52.8034L52.2705 37.5509Z" fill="#FF6464"/>
<path d="M46.0909 37.5509H43L44.1724 32.8613H47.0501L46.0909 37.5509Z" fill="#FF6464"/>
<path d="M70.819 37.5509H67.7282L67.1953 32.8613H70.073L70.819 37.5509Z" fill="#FF6464"/>
<path d="M55.3643 37.5509H52.2734L52.8063 32.8613H55.684L55.3643 37.5509Z" fill="#EFF2FA"/>
<path d="M67.7309 37.5509H64.6401L64.3203 32.8613H67.198L67.7309 37.5509Z" fill="#EFF2FA"/>
<path d="M76.9954 37.5519H73.9045L72.9453 32.8623H75.823L76.9954 37.5519Z" fill="#FF6464"/>
<path d="M73.9072 37.5509H70.8164L70.0703 32.8613H72.948L73.9072 37.5509Z" fill="#EFF2FA"/>
<path d="M49.1767 37.5509H46.0859L47.0452 32.8613H49.9228L49.1767 37.5509Z" fill="#EFF2FA"/>
<path d="M61.5362 37.5509H58.4453L58.552 32.8613H61.4295L61.5362 37.5509Z" fill="#EFF2FA"/>
<path d="M62.9291 44.5855V55.137H47.6881V44.5855H62.9291ZM63.5153 43.4131H47.1018C46.7781 43.4131 46.5156 43.6756 46.5156 43.9993V55.7232C46.5156 56.0469 46.7781 56.3094 47.1018 56.3094H63.5152C63.8389 56.3094 64.1014 56.0469 64.1014 55.7232V43.9993C64.1014 43.6756 63.839 43.4131 63.5153 43.4131Z" fill="#8F96AC"/>
<path d="M72.894 43.4131H65.8597C65.5359 43.4131 65.2734 43.6756 65.2734 43.9993V58.6541H73.4801V43.9993C73.4801 43.6756 73.2177 43.4131 72.894 43.4131ZM72.3077 55.137H66.4458V44.5855H72.3077V55.137Z" fill="#8F96AC"/>
<path d="M69.3758 32.8619H50.6177C49.9702 32.8619 49.4453 32.337 49.4453 31.6895V28.1724C49.4453 27.5249 49.9702 27 50.6177 27H69.3759C70.0234 27 70.5482 27.5249 70.5482 28.1724V31.6896C70.5482 32.337 70.0234 32.8619 69.3758 32.8619Z" fill="#AFB9D2"/>
<path d="M69.0823 31.689H50.9103C50.7484 31.689 50.6172 31.5578 50.6172 31.3959V28.465C50.6172 28.3031 50.7484 28.1719 50.9103 28.1719H69.0823C69.2441 28.1719 69.3754 28.3031 69.3754 28.465V31.396C69.3754 31.5578 69.2441 31.689 69.0823 31.689Z" fill="#FFD782"/>
<path d="M50.9103 31.6891H69.0823C69.2441 31.6891 69.3754 31.5579 69.3754 31.396V30.2236C69.3754 30.3855 69.2441 30.5167 69.0823 30.5167H50.9103C50.7484 30.5167 50.6172 30.3855 50.6172 30.2236V31.396C50.6173 31.5579 50.7485 31.6891 50.9103 31.6891Z" fill="#FFAF5F"/>
<path d="M76.7061 59.8267H43.2931C43.1312 59.8267 43 59.6955 43 59.5336V58.9474C43 58.7855 43.1312 58.6543 43.2931 58.6543H76.7061C76.8679 58.6543 76.9992 58.7855 76.9992 58.9474V59.5336C76.9992 59.6955 76.8679 59.8267 76.7061 59.8267Z" fill="#8F96AC"/>
</g>
<defs>
<clipPath id="clip0_4652_13438">
<rect width="120" height="120" fill="white"/>
</clipPath>
</defs>
</svg>
