<svg width="150" height="150" viewBox="0 0 150 150" fill="none" xmlns="http://www.w3.org/2000/svg">
<rect x="8.33594" y="8.33398" width="133.333" height="133.333" rx="12.5" fill="#43386B"/>
<path d="M59.375 81.25H65.625C66.4538 81.25 67.2487 80.9208 67.8347 80.3347C68.4208 79.7487 68.75 78.9538 68.75 78.125C68.75 77.2962 68.4208 76.5013 67.8347 75.9153C67.2487 75.3292 66.4538 75 65.625 75H59.375C58.5462 75 57.7513 75.3292 57.1653 75.9153C56.5792 76.5013 56.25 77.2962 56.25 78.125C56.25 78.9538 56.5792 79.7487 57.1653 80.3347C57.7513 80.9208 58.5462 81.25 59.375 81.25ZM78.125 87.5H59.375C58.5462 87.5 57.7513 87.8292 57.1653 88.4153C56.5792 89.0013 56.25 89.7962 56.25 90.625C56.25 91.4538 56.5792 92.2487 57.1653 92.8347C57.7513 93.4208 58.5462 93.75 59.375 93.75H78.125C78.9538 93.75 79.7487 93.4208 80.3347 92.8347C80.9208 92.2487 81.25 91.4538 81.25 90.625C81.25 89.7962 80.9208 89.0013 80.3347 88.4153C79.7487 87.8292 78.9538 87.5 78.125 87.5ZM96.875 43.75H53.125C50.6386 43.75 48.254 44.7377 46.4959 46.4959C44.7377 48.254 43.75 50.6386 43.75 53.125V96.875C43.75 99.3614 44.7377 101.746 46.4959 103.504C48.254 105.262 50.6386 106.25 53.125 106.25H96.875C99.3614 106.25 101.746 105.262 103.504 103.504C105.262 101.746 106.25 99.3614 106.25 96.875V53.125C106.25 50.6386 105.262 48.254 103.504 46.4959C101.746 44.7377 99.3614 43.75 96.875 43.75ZM81.25 50V60.2812L76.5312 57.6562C76.0562 57.382 75.5173 57.2376 74.9687 57.2376C74.4202 57.2376 73.8813 57.382 73.4062 57.6562L68.75 60.2812V50H81.25ZM100 96.875C100 97.7038 99.6708 98.4987 99.0847 99.0847C98.4987 99.6708 97.7038 100 96.875 100H53.125C52.2962 100 51.5013 99.6708 50.9153 99.0847C50.3292 98.4987 50 97.7038 50 96.875V53.125C50 52.2962 50.3292 51.5013 50.9153 50.9153C51.5013 50.3292 52.2962 50 53.125 50H62.5V65.625C62.5033 66.1704 62.6492 66.7054 62.9234 67.1768C63.1975 67.6483 63.5902 68.0398 64.0625 68.3125C64.5376 68.5868 65.0764 68.7312 65.625 68.7312C66.1736 68.7312 66.7124 68.5868 67.1875 68.3125L75 63.9688L82.8438 68.3437C83.3108 68.6084 83.8382 68.7484 84.375 68.75C85.2038 68.75 85.9987 68.4208 86.5847 67.8347C87.1708 67.2487 87.5 66.4538 87.5 65.625V50H96.875C97.7038 50 98.4987 50.3292 99.0847 50.9153C99.6708 51.5013 100 52.2962 100 53.125V96.875Z" fill="#E7E9FF"/>
</svg>
