<svg width="5283" height="3155" viewBox="0 0 5283 3155" fill="none" xmlns="http://www.w3.org/2000/svg">
<path d="M3014.44 2180.88L3401.48 2305.82L3099.75 2578.53L3014.44 2180.88Z" fill="#191D74"/>
<path d="M3298.26 2369.32C3383.8 2490.73 3497.21 2595.21 3723.21 2627.32C3978.85 2663.64 4115.75 2612.58 4252.15 2517.41L4484.22 2550.81C4313.11 2727.33 4019.59 2810.89 3711.7 2767.16C3473.46 2733.32 3285.08 2632.24 3166.27 2488.69L3298.26 2369.32Z" fill="#191D74"/>
<path d="M140.414 1883.91L464.773 632.963" stroke="#191D74" stroke-width="187.848" stroke-miterlimit="16" stroke-linecap="square"/>
<path d="M3546.6 1806.79C3797.77 1610.1 3841.93 1247.04 3645.24 995.868C3448.55 744.698 3085.5 700.533 2834.33 897.221C2583.16 1093.91 2539 1456.97 2735.67 1708.15C2932.37 1959.3 3295.43 2003.48 3546.6 1806.79Z" stroke="#191D74" stroke-width="187.848" stroke-linecap="round" stroke-linejoin="round"/>
<path d="M4386.53 1909.29C4694.68 1991.85 5011.41 1809 5093.97 1500.84C5176.55 1192.7 4993.68 875.959 4685.54 793.391C4377.38 710.823 4060.64 893.692 3978.08 1201.84C3895.51 1509.99 4078.39 1826.73 4386.53 1909.29Z" stroke="#191D74" stroke-width="187.848" stroke-linecap="round" stroke-linejoin="round"/>
<path d="M2272.3 2598.12L2596.7 1347.18" stroke="#191D74" stroke-width="187.848" stroke-linecap="square" stroke-linejoin="round"/>
<mask id="mask0_4439_12717" style="mask-type:alpha" maskUnits="userSpaceOnUse" x="2861" y="988" width="659" height="659">
<path d="M3190.33 1646.11C3371.89 1646.11 3519.06 1498.93 3519.06 1317.37C3519.06 1135.82 3371.89 988.641 3190.33 988.641C3008.78 988.641 2861.6 1135.82 2861.6 1317.37C2861.6 1498.93 3008.78 1646.11 3190.33 1646.11Z" fill="#C4C4C4"/>
</mask>
<g mask="url(#mask0_4439_12717)">
<path d="M3450.76 1514.4C3560.68 1369.9 3532.64 1163.65 3388.14 1053.74C3243.63 943.825 3037.39 971.865 2927.47 1116.37C2817.56 1260.87 2845.6 1467.11 2990.1 1577.03C3134.6 1686.94 3340.85 1658.9 3450.76 1514.4Z" fill="black"/>
<path d="M3280.79 942.67C3344.79 991.346 3356.57 1083.52 3307.11 1148.55C3257.65 1213.57 3165.68 1226.83 3101.68 1178.15C3037.68 1129.47 3025.91 1037.3 3075.37 972.276C3124.83 907.249 3216.81 893.994 3280.79 942.67Z" fill="white"/>
</g>
<mask id="mask1_4439_12717" style="mask-type:alpha" maskUnits="userSpaceOnUse" x="4206" y="1021" width="658" height="659">
<path d="M4535.07 1679.08C4716.62 1679.08 4863.8 1531.9 4863.8 1350.35C4863.8 1168.79 4716.62 1021.61 4535.07 1021.61C4353.51 1021.61 4206.33 1168.79 4206.33 1350.35C4206.33 1531.9 4353.51 1679.08 4535.07 1679.08Z" fill="#C4C4C4"/>
</mask>
<g mask="url(#mask1_4439_12717)">
<path d="M4799.69 1550.86C4909.61 1406.36 4881.57 1200.11 4737.07 1090.2C4592.56 980.284 4386.32 1008.32 4276.4 1152.83C4166.49 1297.33 4194.53 1503.57 4339.03 1613.49C4483.53 1723.4 4689.78 1695.36 4799.69 1550.86Z" fill="black"/>
<path d="M4586.61 997.617C4650.59 1046.29 4662.39 1138.47 4612.91 1203.49C4563.45 1268.52 4471.48 1281.77 4407.48 1233.1C4343.5 1184.42 4331.71 1092.25 4381.17 1027.22C4430.64 962.195 4522.61 948.941 4586.61 997.617Z" fill="white"/>
</g>
<mask id="mask2_4439_12717" style="mask-type:alpha" maskUnits="userSpaceOnUse" x="1147" y="678" width="1339" height="1340">
<path d="M1816.51 2017.04C2186.1 2017.04 2485.71 1717.43 2485.71 1347.84C2485.71 978.243 2186.1 678.628 1816.51 678.628C1446.91 678.628 1147.3 978.243 1147.3 1347.84C1147.3 1717.43 1446.91 2017.04 1816.51 2017.04Z" fill="#C4C4C4"/>
</mask>
<g mask="url(#mask2_4439_12717)">
<path d="M2367.93 1515.44L1180.33 1200.06" stroke="#191D74" stroke-width="192.545" stroke-linecap="square" stroke-linejoin="round"/>
<mask id="mask3_4439_12717" style="mask-type:alpha" maskUnits="userSpaceOnUse" x="793" y="305" width="1923" height="2123">
<path d="M1250.63 305.717L2715.81 698.312L2511.61 1460.39L1046.43 1067.8L1250.63 305.717Z" fill="#C4C4C4"/>
<path d="M1773.63 1457.22L997.941 1249.38L793.743 2011.46L1569.43 2219.3L1773.63 1457.22Z" fill="#C4C4C4"/>
<path d="M2494.51 1869.12L1718.82 1661.27L1569.32 2219.22L2345 2427.07L2494.51 1869.12Z" fill="#C4C4C4"/>
</mask>
<g mask="url(#mask3_4439_12717)">
<path d="M2053.36 1870.38C2344.87 1740.78 2476.11 1399.4 2346.51 1107.9C2216.9 816.397 1875.53 685.154 1584.02 814.763C1292.52 944.37 1161.27 1285.75 1290.88 1577.25C1420.49 1868.76 1761.87 2000 2053.36 1870.38Z" stroke="#191D74" stroke-width="187.848" stroke-linecap="round" stroke-linejoin="round"/>
</g>
</g>
<mask id="mask4_4439_12717" style="mask-type:alpha" maskUnits="userSpaceOnUse" x="121" y="182" width="1274" height="1281">
<path d="M1394.92 451.178L392.426 182.56L121.377 1194.13L1123.87 1462.75L1394.92 451.178Z" fill="#C4C4C4"/>
</mask>
<g mask="url(#mask4_4439_12717)">
<path d="M1114.07 1874.78C1404.31 1742.37 1532.25 1399.75 1399.84 1109.51C1267.43 819.266 924.798 691.322 634.558 823.736C344.317 956.149 216.374 1298.78 348.787 1589.02C481.199 1879.26 823.828 2007.2 1114.07 1874.78Z" stroke="#191D74" stroke-width="187.848" stroke-linecap="round" stroke-linejoin="round"/>
</g>
</svg>
