<svg width="120" height="145" viewBox="0 0 120 145" fill="none" xmlns="http://www.w3.org/2000/svg">
<rect width="120" height="144.857" rx="12.8571" fill="#E7E9FF"/>
<path fill-rule="evenodd" clip-rule="evenodd" d="M87.0783 66.041H115.003V75.7419C115.003 78.1404 113.046 80.0993 110.649 80.0993H100.605L94.6131 83.1258L87.0781 80.0993V66.041H87.0783Z" fill="#FFE07D"/>
<path fill-rule="evenodd" clip-rule="evenodd" d="M91.4321 58.9629H110.649C113.046 58.9629 115.003 60.9218 115.003 63.3204V70.5286H87.0781V63.3204C87.0781 60.9218 89.0356 58.9629 91.4321 58.9629Z" fill="#FFE07D"/>
<path fill-rule="evenodd" clip-rule="evenodd" d="M109.175 68.3563H112.751H115.003V63.3206C115.003 61.6817 114.087 60.2502 112.751 59.5092C112.123 59.164 111.408 58.9629 110.649 58.9629H104.82C107.217 58.9629 109.174 60.9218 109.174 63.3204V68.3563H109.175Z" fill="#FFC269"/>
<path fill-rule="evenodd" clip-rule="evenodd" d="M109.174 68.207V75.7418C109.174 78.1403 107.217 80.0993 104.82 80.0993H110.649C111.408 80.0993 112.123 79.9046 112.751 79.5594C114.087 78.8121 115.003 77.3806 115.003 75.7418V68.207H112.751H109.174Z" fill="#FFC269"/>
<path fill-rule="evenodd" clip-rule="evenodd" d="M87.0761 80.0979H100.603V86.3202C100.603 87.8146 99.3793 89.0326 97.8924 89.0326H53.8516C53.8516 85.1209 53.8516 83.1304 56.8441 83.1304L62.8043 83.1242C66.5561 83.1179 69.0154 82.1571 70.3894 80.0977H87.0761V80.0979Z" fill="#6F6571"/>
<path fill-rule="evenodd" clip-rule="evenodd" d="M59.1615 89.0332H97.8901C100.161 92.9889 101.987 97.7421 100.412 106.834C97.7771 97.8676 71.0127 101.447 68.2649 111.794H38.7337C37.617 109.264 36.5629 106.765 35.6406 104.241H43.966C60.8051 97.8863 55.3908 100.718 59.1615 89.0332V89.0332Z" fill="#FFE07D"/>
<path fill-rule="evenodd" clip-rule="evenodd" d="M56.7724 64.7273C57.3497 67.7662 58.1339 70.7614 59.0122 73.3105L67.5254 76.6462L77.018 73.3105C76.6855 55.3465 69.9725 46.732 64.2632 43.9441C62.2054 42.3773 60.0974 41.7871 60.0974 41.7871C60.0974 41.7871 57.3244 46.2234 57.18 46.2234C56.1135 48.7601 55.712 52.0691 55.7809 55.6417L56.7724 64.7273Z" fill="#ECEAEC"/>
<path fill-rule="evenodd" clip-rule="evenodd" d="M77.0194 73.3105H59.0134C54.8662 73.7626 49.7656 76.921 49.7656 86.7035V96.9569L53.852 99.3909L59.1638 96.9569V89.0328C59.1638 85.1212 59.1638 83.1306 62.1563 83.1306L68.1165 83.1244C71.8683 83.1182 74.3276 82.1574 75.7016 80.0979C76.762 78.5096 77.1698 76.2679 77.0194 73.3105V73.3105Z" fill="#FF8086"/>
<path fill-rule="evenodd" clip-rule="evenodd" d="M77.0156 73.3117C76.683 55.3477 69.97 46.7331 64.2608 43.9453C63.4138 44.5417 62.4726 45.0316 61.4375 45.3957C66.4943 49.2195 71.5635 57.7651 71.8521 73.3117H77.0156Z" fill="#DAD8DB"/>
<path fill-rule="evenodd" clip-rule="evenodd" d="M77.0178 73.3105H71.8545C72.0051 76.2679 71.5973 78.5095 70.5371 80.0981C69.6712 81.3979 68.3663 82.4966 66.5781 83.1246H68.1153C71.8671 83.1184 74.3265 82.1576 75.7004 80.0981C76.7604 78.5095 77.1682 76.2679 77.0178 73.3105V73.3105Z" fill="#F76672"/>
<path fill-rule="evenodd" clip-rule="evenodd" d="M68.2656 111.794C68.2656 102.508 75.6249 95.1113 84.7031 95.1113C92.0875 95.1113 98.3362 100.009 100.413 106.834C100.84 108.234 101.091 109.722 101.134 111.267C101.153 111.87 100.739 111.794 100.174 111.794C89.5403 111.794 78.8997 111.788 68.2656 111.794V111.794Z" fill="#FF8086"/>
<path fill-rule="evenodd" clip-rule="evenodd" d="M72.3984 111.795H97.4187C97.0612 118.538 91.5967 123.901 84.9086 123.901C78.2205 123.901 72.7559 118.538 72.3984 111.795V111.795Z" fill="#6F6571"/>
<path fill-rule="evenodd" clip-rule="evenodd" d="M8.86189 109.127L30.3875 114.081C29.0198 120.027 23.091 123.744 17.1497 122.376C11.2022 121.007 7.49419 115.073 8.86189 109.127V109.127Z" fill="#6F6571"/>
<path fill-rule="evenodd" clip-rule="evenodd" d="M7.25242 103.093C10.2953 98.6659 15.5778 96.0979 21.0989 96.6505C30.836 98.7099 34.0043 104.53 34.6379 111.789C34.6255 112.775 34.5187 113.767 34.3053 114.759C34.2426 115.035 34.0606 114.922 33.7594 114.853L30.3902 114.081L8.86461 109.127L7.25221 108.756L5 108.235C5.43291 106.339 6.21086 104.606 7.25242 103.093Z" fill="#ECEAEC"/>
<path fill-rule="evenodd" clip-rule="evenodd" d="M21.0781 96.6254L29.7737 66.537L33.6886 64.7852L38.0678 66.537C32.3147 82.4855 33.9206 93.6178 37.8044 104.242C38.7329 106.766 39.7869 109.265 40.8975 111.795H34.6423L21.0781 96.6254Z" fill="#FF8086"/>
<path fill-rule="evenodd" clip-rule="evenodd" d="M48.0087 32.7995L58.2101 30.627C59.2452 30.7211 62.2066 33.2077 62.2066 34.7648L60.0359 45.8031C59.1324 46.0731 58.1725 46.2238 57.1812 46.2238C51.748 46.2238 47.3438 41.8098 47.3438 36.3721C47.3438 35.1101 47.5758 33.9044 48.0087 32.7995V32.7995Z" fill="#FFECE4"/>
<path fill-rule="evenodd" clip-rule="evenodd" d="M44.7109 32.7999C44.7109 25.7801 50.2696 20.0977 57.1332 20.0977C63.9968 20.0977 69.5555 25.7801 69.5555 32.7999C69.5555 37.4336 67.6732 41.5526 64.2602 43.9449C63.0431 44.8051 61.6252 45.4393 60.0317 45.8035V34.765C60.0317 33.2079 59.2413 32.894 58.2059 32.7996H48.0047H44.7109V32.7999Z" fill="#FF8086"/>
<path fill-rule="evenodd" clip-rule="evenodd" d="M50.6328 21.975C52.5213 20.7819 54.7486 20.0977 57.1325 20.0977C63.9961 20.0977 69.5547 25.7801 69.5547 32.7999C69.5547 37.4336 67.6725 41.5526 64.2595 43.9449C63.3937 44.554 62.4337 45.05 61.3797 45.4142C63.9018 42.8586 65.2695 39.1919 65.2695 35.1481C65.2695 27.8144 59.4537 21.8682 52.2826 21.8682C51.7244 21.8682 51.1723 21.8996 50.6328 21.975Z" fill="#F76672"/>
<path fill-rule="evenodd" clip-rule="evenodd" d="M49.7644 96.957H59.1628V102.878C59.1628 104.147 58.4727 104.241 57.4562 104.241H43.9675C43.6974 98.3007 47.2924 96.957 49.7644 96.957Z" fill="#6F6571"/>
<path fill-rule="evenodd" clip-rule="evenodd" d="M37.8074 104.242C33.9239 93.6182 32.3177 82.4856 38.0708 66.5371H34.846C34.8336 66.5371 34.8209 66.5371 34.8084 66.5371H33.6478C27.8947 82.4856 29.4945 93.6179 33.3842 104.242C34.3065 106.766 35.3606 109.265 36.4773 111.795H38.736H40.9005C39.79 109.265 38.736 106.766 37.8074 104.242Z" fill="#F76672"/>
<path fill-rule="evenodd" clip-rule="evenodd" d="M34.6376 111.789L21.0986 96.65C19.6995 96.5118 18.3129 96.5683 16.9766 96.8133L29.9886 111.361C29.9761 112.209 29.8945 113.069 29.7314 113.929L30.3901 114.08L33.7593 114.852C34.0605 114.921 34.2425 115.035 34.3052 114.758C34.5183 113.766 34.6249 112.774 34.6376 111.789V111.789Z" fill="#DAD8DB"/>
<path fill-rule="evenodd" clip-rule="evenodd" d="M97.8927 89.0332H59.1641V92.4426H90.9852C93.5762 92.4426 94.806 93.5602 95.8162 95.827C96.6882 97.7924 96.7071 98.4328 97.1022 100.806C98.5892 102.533 99.7311 104.58 100.415 106.834C101.99 97.7419 100.164 92.9889 97.8927 89.0332V89.0332Z" fill="#FFC269"/>
<path fill-rule="evenodd" clip-rule="evenodd" d="M97.0983 100.806C94.0869 97.3087 89.6512 95.1113 84.7012 95.1113C83.459 95.1113 82.2543 95.2495 81.0938 95.5069C88.5033 97.1833 93.6855 103.726 93.9113 111.267C93.9238 111.681 93.7356 111.775 93.4346 111.794H97.4184H100.173C100.737 111.794 101.152 111.87 101.133 111.267C101.089 109.722 100.838 108.234 100.411 106.834C100.399 106.79 100.386 106.752 100.374 106.715C100.374 106.715 100.374 106.715 100.374 106.709C99.6833 104.505 98.5603 102.502 97.0983 100.806Z" fill="#F76672"/>
<path fill-rule="evenodd" clip-rule="evenodd" d="M29.7301 113.93L8.86297 109.127C8.63094 110.113 8.5493 111.105 8.5869 112.072L25.1498 115.883L25.8023 116.034C25.1874 118.734 23.6253 120.975 21.5486 122.489C25.7834 121.741 29.3659 118.539 30.3886 114.081L29.7301 113.93Z" fill="#5D5360"/>
<path fill-rule="evenodd" clip-rule="evenodd" d="M93.4349 111.795H72.3984C72.4674 113.114 72.7372 114.382 73.1702 115.569H87.8259H91.8098C91.6529 118.52 90.5237 121.201 88.7418 123.292C93.579 121.703 97.1362 117.189 97.4185 111.795H93.4349V111.795Z" fill="#5D5360"/>
<path fill-rule="evenodd" clip-rule="evenodd" d="M100.602 86.3219V80.0996H92.1009V86.3219C92.1009 87.8164 90.8776 89.0343 89.3906 89.0343H97.8918C99.3787 89.0345 100.602 87.8164 100.602 86.3219Z" fill="#5D5360"/>
<path fill-rule="evenodd" clip-rule="evenodd" d="M47.3906 35.3168H55.7725C56.8077 35.4109 57.5983 35.7312 57.5983 37.2884V46.2107C58.439 46.1731 59.2545 46.0349 60.0325 45.8025V34.7642C60.0325 33.207 59.2421 32.8931 58.2067 32.7988H48.0055C47.6981 33.5901 47.4847 34.4377 47.3906 35.3168V35.3168Z" fill="#FFDDCE"/>
<path fill-rule="evenodd" clip-rule="evenodd" d="M27.9654 57.062L39.7038 60.9423C40.2811 61.457 39.6286 66.7063 39.2396 66.5368H29.7785H25.5938V57.8971C25.5938 56.1955 26.4785 56.5721 27.9654 57.062V57.062Z" fill="#FFE07D"/>
<path fill-rule="evenodd" clip-rule="evenodd" d="M45.1718 66.5361H44.1867H39.2367C36.0495 66.5361 35.9554 61.2492 39.701 60.9415L45.1718 60.502L46.6398 63.6101L45.1718 66.5361Z" fill="#FFECE4"/>
<path fill-rule="evenodd" clip-rule="evenodd" d="M55.7811 55.6433L57.7447 53.9542C62.6634 49.716 68.881 56.8677 62.3059 61.1373L56.7724 64.7288L53.9867 66.5372H45.1719V60.5031L50.6489 60.0573L55.7811 55.6433Z" fill="#FF8086"/>
<path fill-rule="evenodd" clip-rule="evenodd" d="M45.1734 66.5368V63.6108H44.0001H43.3665H42.3753H37.4253C37.2371 63.6108 37.0613 63.5984 36.892 63.5605C36.71 65.0172 37.532 66.5368 39.2385 66.5368H44.1885H45.1734Z" fill="#FFDDCE"/>
<path fill-rule="evenodd" clip-rule="evenodd" d="M62.3059 61.1372C66.2835 58.5502 65.5807 54.9149 63.3161 53.3828C63.498 54.9525 62.7515 56.7546 60.4928 58.2177L56.1826 61.0117L54.9655 61.8092L52.1799 63.6113H45.1719V66.5373H53.9867L56.7724 64.7289L62.3059 61.1372Z" fill="#F76672"/>
<path fill-rule="evenodd" clip-rule="evenodd" d="M39.7021 60.942L34.9779 59.3848C33.3969 61.0801 32.6314 64.3827 33.6478 66.5365H38.0708H39.2379C37.5314 66.5365 36.7096 65.0169 36.8913 63.5603C37.0544 62.2983 37.9643 61.0863 39.7021 60.942V60.942Z" fill="#FFC269"/>
<path d="M94.1094 69.0151C94.1094 69.2906 96.462 70.2664 96.462 70.2664V71.7526L96.7432 73.1107L96.462 75.078V77.0956C96.462 77.2737 96.5242 77.7085 96.7846 77.7085H105.646L105.688 76.4145L105.969 75.6221V70.2664C105.969 70.2664 108.322 69.4422 108.322 69.0151L107.595 66.8791L105.592 64.2917L103.887 63.5703L98.544 63.5704L96.3855 64.4837L94.5817 67.6275L94.1094 69.0151Z" fill="#DD646E"/>
<path d="M103.396 73.8074H103.397C103.589 74.4039 104.27 74.3111 104.27 74.3111C104.27 74.3111 104.567 73.6917 104.059 73.3253C104.685 73.3275 104.809 72.6516 104.809 72.6516C104.809 72.6516 104.312 72.1767 103.806 72.5463C104.001 71.9507 103.397 71.625 103.397 71.625C103.397 71.625 102.792 71.9507 102.987 72.5463C102.481 72.1767 101.984 72.6516 101.984 72.6516C101.984 72.6516 102.108 73.3275 102.734 73.3253C102.226 73.6917 102.523 74.3111 102.523 74.3111C102.523 74.3111 103.204 74.4039 103.396 73.8074H103.397H103.396Z" fill="#EEF1F3"/>
<path d="M99.0371 69.5984H99.0372C99.2299 70.1949 99.9106 70.1021 99.9106 70.1021C99.9106 70.1021 100.208 69.4827 99.6992 69.1163C100.326 69.1185 100.449 68.4426 100.449 68.4426C100.449 68.4426 99.9529 67.9677 99.4466 68.3373C99.642 67.7417 99.0372 67.416 99.0372 67.416C99.0372 67.416 98.4323 67.7417 98.6277 68.3373C98.1214 67.9677 97.625 68.4426 97.625 68.4426C97.625 68.4426 97.7482 69.1185 98.3751 69.1163C97.8665 69.4827 98.1637 70.1021 98.1637 70.1021C98.1637 70.1021 98.8444 70.1949 99.0371 69.5984H99.0372H99.0371Z" fill="#EEF1F3"/>
<path d="M102.784 77.4183H96.7757C96.5975 77.4183 96.4531 77.2739 96.4531 77.0957V77.6763C96.4531 77.8545 96.5975 77.9989 96.7757 77.9989H97.9102L98.9142 77.7177L99.9182 77.9989H100.965L101.207 77.7177L101.449 77.9989H103.305L103.456 77.6995L102.784 77.4183Z" fill="#DB4955"/>
<path d="M105.635 77.7102C105.813 77.7102 105.957 77.2759 105.957 77.0981V75.6238C105.707 75.1887 105.281 74.959 105.281 74.959C105.281 74.959 104.13 75.579 104.502 76.7122C103.539 76.009 102.594 76.9128 102.594 76.9128C102.594 76.9128 102.637 77.1497 102.781 77.4198L105.635 77.7102Z" fill="#EEF1F3"/>
<path d="M105.635 77.4194H102.781C102.89 77.6232 103.055 77.8459 103.303 78.0001H105.635C105.813 78.0001 105.958 77.8556 105.958 77.6775V77.0977C105.957 77.2754 105.813 77.4194 105.635 77.4194V77.4194Z" fill="#DEE7ED"/>
<path d="M98.0917 73.6581C98.8739 74.2216 98.4165 75.1745 98.4165 75.1745C98.4165 75.1745 97.3698 75.317 97.0734 74.3996H97.073C96.9501 74.7803 96.6982 74.9783 96.4453 75.0799V71.7546C96.6143 71.2901 97.0734 71.043 97.0734 71.043C97.0734 71.043 98.0036 71.5439 97.703 72.46C98.4817 71.8917 99.2452 72.622 99.2452 72.622C99.2452 72.622 99.0556 73.6616 98.0917 73.6581V73.6581Z" fill="#EEF1F3"/>
<path d="M96.6959 66.1276C97.4672 66.6834 97.0166 67.6227 97.0166 67.6227C97.0166 67.6227 95.9844 67.7633 95.6921 66.8588H95.6918C95.4796 67.5162 94.876 67.6217 94.5625 67.6301L95.4625 64.986C95.4918 64.8989 95.5573 64.8286 95.6422 64.7928L96.3663 64.4863C96.3812 64.625 96.368 64.7786 96.3131 64.9463C97.0808 64.386 97.8334 65.106 97.8334 65.106C97.8334 65.106 97.6465 66.1311 96.6959 66.1276V66.1276Z" fill="#EEF1F3"/>
<path d="M106.761 64.7926L105.997 64.4697L105.997 64.4697C105.997 64.4694 105.997 64.4694 105.996 64.4694C105.996 64.4692 105.996 64.4691 105.996 64.4689L105.583 64.2943C105.583 64.2943 105.583 64.2943 105.583 64.2942C105.583 64.2941 105.583 64.2941 105.583 64.2941L105.582 64.2939C105.064 64.213 104.641 64.6181 104.641 64.6181C104.641 64.6181 104.808 65.5371 105.661 65.5342C104.969 66.0326 105.373 66.8748 105.373 66.8748C105.373 66.8748 106.299 67.0013 106.561 66.19H106.562C106.754 66.7874 107.307 66.8761 107.585 66.8816L107.585 66.8807L106.94 64.9857C106.911 64.8987 106.845 64.8284 106.761 64.7926Z" fill="#EEF1F3"/>
<path d="M103.001 62H99.4118L99.2109 62.8965L99.8053 63.2053L101.207 63.8452L102.608 63.2053L103.199 62.9534L103.001 62Z" fill="#9B3050"/>
<path d="M104.677 70.1426L103.738 70.7277C103.684 70.7608 103.617 70.7608 103.564 70.7277L102.624 70.1426C102.576 70.1126 102.547 70.0598 102.547 70.003V68.4731C102.547 68.3822 102.621 68.3086 102.711 68.3086H104.59C104.681 68.3086 104.754 68.3822 104.754 68.4731V70.003C104.754 70.0598 104.725 70.1126 104.677 70.1426V70.1426Z" fill="#B3495D"/>
<path d="M99.8047 63.2051H102.607L102.23 65.223L101.206 67.4979L100.19 65.2483L99.8047 63.2051Z" fill="#365E7D"/>
<path d="M103.005 62L101.21 67.4981L101.21 67.4981L99.4158 62L98.5391 63.5711L98.6055 64.794C98.6102 64.8805 98.6844 64.9466 98.7709 64.9415L99.3564 64.9062C99.4671 64.8995 99.5493 65.0072 99.5137 65.1123L99.3156 65.6971C99.2954 65.7567 99.3129 65.8227 99.3601 65.8643L100.969 67.2847L100.969 67.2847V77.4189L101.21 77.7001L101.452 77.4189V67.2844L103.06 65.8644C103.108 65.8227 103.125 65.7567 103.105 65.6971L102.907 65.1123C102.871 65.0072 102.954 64.8995 103.064 64.9062L103.65 64.9415C103.736 64.9467 103.81 64.8805 103.815 64.794L103.882 63.5711L103.005 62ZM101.21 67.4982L101.21 67.4981L101.211 67.4978L101.21 67.4982Z" fill="#B3495D"/>
<path d="M100.961 77.418H101.445V77.9987H100.961V77.418Z" fill="#9B3050"/>
<path d="M95.9661 70.1367L96.208 69.902L95.9661 69.556L94.2393 69.0939C94.185 69.0794 94.138 69.0517 94.1002 69.0156L94.0173 69.259C93.9572 69.4356 94.059 69.6263 94.2393 69.6745L95.9661 70.1367Z" fill="#DB4955"/>
<path d="M96.4526 68.2068C96.4526 68.0732 96.3443 67.9648 96.2107 67.9648C96.0771 67.9648 95.9688 68.0732 95.9688 68.2068V69.5567L96.2107 69.9027L96.4526 69.6862V68.2068Z" fill="#B3495D"/>
<path d="M96.4526 69.6861L95.9688 69.5566V70.1373L96.4555 70.2675L96.4526 69.6861Z" fill="#9B3050"/>
<path d="M108.394 69.259L108.311 69.0156C108.273 69.0517 108.226 69.0794 108.172 69.0939L106.445 69.556L106.203 69.8783L106.445 70.1366L106.445 70.1367L108.172 69.6745C108.352 69.6263 108.454 69.4357 108.394 69.259V69.259Z" fill="#DB4955"/>
<path d="M100.471 77.4192C100.503 77.3314 100.514 77.27 100.514 77.27C100.514 77.27 99.9498 76.7303 99.3746 77.1503C99.5966 76.4735 98.9095 76.1035 98.9095 76.1035C98.9095 76.1035 98.2221 76.4735 98.444 77.1503C97.8689 76.7303 97.3047 77.27 97.3047 77.27C97.3047 77.27 97.316 77.3314 97.3481 77.4192L98.9093 77.7005L100.471 77.4192Z" fill="#EEF1F3"/>
<path d="M97.3516 77.418C97.4182 77.6004 97.5748 77.8972 97.9088 77.9987H99.9168C100.251 77.8972 100.407 77.6004 100.474 77.418H97.3516Z" fill="#DEE7ED"/>
<path d="M106.445 68.2068C106.445 68.0732 106.336 67.9648 106.203 67.9648C106.069 67.9648 105.961 68.0732 105.961 68.2068V69.6862L106.203 69.879L106.445 69.5567V68.2068Z" fill="#B3495D"/>
<path d="M105.964 69.6861L106.447 69.5566V70.1373L105.961 70.2675L105.964 69.6861Z" fill="#9B3050"/>
</svg>
