{
  "files": {
    "main.css": "/static/css/main.2b37b89e.css",
    "main.js": "/static/js/main.a32e85f6.js",
    "static/js/787.5383fd68.chunk.js": "/static/js/787.5383fd68.chunk.js",
    "static/media/Whatsapp.svg": "/static/media/Whatsapp.ca7181816b553458c62667f0bce772b5.svg",
    "static/media/repoLanding.png": "/static/media/repoLanding.1c50ec585b75bad051bd.png",
    "static/media/exclusivo.png": "/static/media/exclusivo.706960c7b3a9e9eb9e02.png",
    "static/media/seleccionaProducto.svg": "/static/media/seleccionaProducto.eba49fa07ed891a07a672574cdaf7522.svg",
    "static/media/seleccionaTienda.svg": "/static/media/seleccionaTienda.2e7834a3aad4c6d448e4a28c60212fbe.svg",
    "static/media/cargui.png": "/static/media/cargui.e400bdef36155129acf7.png",
    "static/media/seleccionaServicio.svg": "/static/media/seleccionaServicio.e47c309a7bbf5542f22585bc93b276e8.svg",
    "static/media/accesoriosYJoyas.svg": "/static/media/accesoriosYJoyas.3a0ab0ae10bbef289163922c647fd92f.svg",
    "static/media/olva.png": "/static/media/olva.6e585d78862e50cd3e59.png",
    "static/media/seleccionaTusDatos.svg": "/static/media/seleccionaTusDatos.b54f403ace541eb881d717a5fb08d773.svg",
    "static/media/cola.svg": "/static/media/cola.c97f5e4e36c1251a67ddf7d095447da5.svg",
    "static/media/revicons.eot": "/static/media/revicons.a77de540a38981833f9e.eot",
    "static/media/internet1.svg": "/static/media/internet1.379660a6722a7c82734d3327b1813add.svg",
    "static/media/revicons.ttf": "/static/media/revicons.57fd05d4ae650374c8de.ttf",
    "static/media/seguridad.svg": "/static/media/seguridad.7cd4fd6aadd22b2db0a7882a760a0b32.svg",
    "static/media/nirex.png": "/static/media/nirex.9a51fbcaae4f35e58ef3.png",
    "static/media/seleccionaMotivo.svg": "/static/media/seleccionaMotivo.964d458200cf7a05323a2a4077ae9646.svg",
    "static/media/articulosTecnologicos.svg": "/static/media/articulosTecnologicos.6ea2953bde2a98c712e8f302790af9a6.svg",
    "static/media/localDeTienda.svg": "/static/media/localDeTienda.fe58a29e739e4366aba255e9e3f08d70.svg",
    "static/media/DNI.svg": "/static/media/DNI.63846577d00b7d9f2cebe8980fd2c8e1.svg",
    "static/media/Group.svg": "/static/media/Group.18d2e97e584e08a9ac02d51243a078d2.svg",
    "static/media/symbol.svg": "/static/media/symbol.be1aa9a01414f833cb65b971f67fcad1.svg",
    "static/media/caja.svg": "/static/media/caja.ab5f6d262f0c82bde29f889456aa8d3c.svg",
    "static/media/Camion.svg": "/static/media/Camion.6f5cd473be46765e60b4f1ccefb9663d.svg",
    "static/media/noTienda.svg": "/static/media/noTienda.08471818328a82e4906a4e2698978560.svg",
    "static/media/exchange.svg": "/static/media/exchange.bf2f47ee0d2d22b6febcbf0995f1d5b6.svg",
    "static/media/revicons.woff": "/static/media/revicons.e8746a624ed098489406.woff",
    "static/media/calzado.svg": "/static/media/calzado.e42d3d240d701933d4fc6f6194c8816f.svg",
    "static/media/devoluciones.svg": "/static/media/devoluciones.c723f5de0e003013cf34b8a9209a9a97.svg",
    "static/media/accesibilidad.svg": "/static/media/accesibilidad.6819e8f048dbb50748c50f7eefa4afcc.svg",
    "static/media/diversidad.svg": "/static/media/diversidad.5e5e360bb9cf595b40eb252398d231dd.svg",
    "static/media/callCenter.svg": "/static/media/callCenter.ed03290dca8aec55dd75cf45b88f5c79.svg",
    "static/media/ropa.svg": "/static/media/ropa.76dc4554d4209b4baca7db133db47c92.svg",
    "static/media/carterasYMaletas.svg": "/static/media/carterasYMaletas.41aa22e84e50fb02ef45fc583f4ac2d5.svg",
    "static/media/inmediatez.svg": "/static/media/inmediatez.6b4aec2822fb31cd234ed534101f6831.svg",
    "static/media/mueblesYAdornos.svg": "/static/media/mueblesYAdornos.54ce39320bb552f4b1c3b1403d5c24f3.svg",
    "static/media/repoLogoGrande.svg": "/static/media/repoLogoGrande.44629e3f14828c482225b9de299e6a28.svg",
    "static/media/team1.svg": "/static/media/team1.d3de2153ca2a1f24a5b721d33f47e5af.svg",
    "static/media/master-card.svg": "/static/media/master-card.7f30cfa4ab70ac96856bcf976e1e1c37.svg",
    "static/media/dinners-club.svg": "/static/media/dinners-club.4bb3ecc6407d64c031276933fb7daaf8.svg",
    "static/media/poder.svg": "/static/media/poder.715259c5ae316c4623452f40ad1188d0.svg",
    "static/media/seleccionaMedioDePago.svg": "/static/media/seleccionaMedioDePago.4bda19f61a16ac768dd71ae3870eb5fa.svg",
    "static/media/symbols.svg": "/static/media/symbols.a9071c9e4e8ff169edc2dc4ad5ca525a.svg",
    "static/media/devolver.svg": "/static/media/devolver.e4cf7b4dc8869c3240d1dba7110c9907.svg",
    "static/media/tienda.svg": "/static/media/tienda.345ffa74dcdb50983c3eaed28b700346.svg",
    "static/media/minitienda.svg": "/static/media/minitienda.5d92b57562727e9a207cac10f48fa41b.svg",
    "static/media/jcb.svg": "/static/media/jcb.4ed036ad7409e3cb91d5e7614b79d7ca.svg",
    "static/media/repologo.svg": "/static/media/repologo.be247a6c7d4c7e6402eb5df1f460c14e.svg",
    "static/media/minipaquete.svg": "/static/media/minipaquete.0bdbbf86dc37be4e10ff5c06ced5cdca.svg",
    "index.html": "/index.html",
    "static/media/visa.svg": "/static/media/visa.4fedaa503c50b0e4c688c017b35787bf.svg",
    "static/media/instagram.svg": "/static/media/instagram.f8508ec67d77c3326c71bae8c75fa522.svg",
    "static/media/boton-de-informacion.svg": "/static/media/boton-de-informacion.5808fbf023928d65e810f7d4eaef6e2f.svg",
    "static/media/tiktok.svg": "/static/media/tiktok.9f56c70420bf40c0b2e04f0ca7a82748.svg",
    "static/media/flechaRepo.svg": "/static/media/flechaRepo.b49e780d510f720f42c9e58eb61fd75e.svg",
    "static/media/direccion.svg": "/static/media/direccion.ca300a77c66cc7f6c6cb2cc3e00e2a69.svg",
    "static/media/equis.svg": "/static/media/equis.65910355f14a1dda3e62acbbac8e4bdb.svg",
    "static/media/linkedin.svg": "/static/media/linkedin.e3edd6757dfd4e4b639bc72e5cfc58ed.svg",
    "static/media/facebook.svg": "/static/media/facebook.091bf6ee7e6d8ff2396ff656b1bc2c2c.svg",
    "static/media/fondoInvertidoLanding.svg": "/static/media/fondoInvertidoLanding.f5a0ccc00ce5dcdc8094.svg",
    "static/media/fondoLanding.svg": "/static/media/fondoLanding.e2ccc9f6080a6bb20bfc.svg",
    "main.2b37b89e.css.map": "/static/css/main.2b37b89e.css.map",
    "main.a32e85f6.js.map": "/static/js/main.a32e85f6.js.map",
    "787.5383fd68.chunk.js.map": "/static/js/787.5383fd68.chunk.js.map"
  },
  "entrypoints": [
    "static/css/main.2b37b89e.css",
    "static/js/main.a32e85f6.js"
  ]
}